{
	"partitions" : [
		{
			"name" : "Top",
			"pins" : [
				{
					"name" : "rs",
					"strict" : false
				},
				{
					"name" : "en",
					"strict" : false
				},
				{
					"name" : "dat[0]",
					"strict" : false
				},
				{
					"name" : "dat[1]",
					"strict" : false
				},
				{
					"name" : "dat[2]",
					"strict" : false
				},
				{
					"name" : "dat[3]",
					"strict" : false
				},
				{
					"name" : "dat[4]",
					"strict" : false
				},
				{
					"name" : "dat[5]",
					"strict" : false
				},
				{
					"name" : "dat[6]",
					"strict" : false
				},
				{
					"name" : "dat[7]",
					"strict" : false
				},
				{
					"name" : "key_z",
					"strict" : false
				},
				{
					"name" : "reset",
					"strict" : false
				},
				{
					"name" : "clk",
					"strict" : false
				},
				{
					"name" : "key_up",
					"strict" : false
				},
				{
					"name" : "key_down",
					"strict" : false
				}
			]
		}
	]
}